<svg xmlns="http://www.w3.org/2000/svg" width="313.776" height="305.089" viewBox="0 0 313.776 305.089">
  <g id="Grupo_9" data-name="Grupo 9" transform="translate(-829.412 -2233.543)">
    <path id="Trazado_38" data-name="Trazado 38" d="M1024.72,1518.037a50.606,50.606,0,0,1-12.029-1.458c-14.478-3.538-26.672-13.031-34.338-26.73-15.331-27.4-7.186-63.235,18.154-79.882h0a50.481,50.481,0,0,1,40.083-7.071c14.477,3.538,26.673,13.031,34.338,26.73,15.331,27.4,7.187,63.233-18.154,79.881A50.9,50.9,0,0,1,1024.72,1518.037Zm-24.369-102.221c-22.336,14.675-29.464,46.352-15.889,70.615,6.706,11.984,17.321,20.276,29.892,23.348a43.566,43.566,0,0,0,34.577-6.122c22.336-14.675,29.464-46.351,15.887-70.613-6.706-11.984-17.321-20.276-29.889-23.349a43.57,43.57,0,0,0-34.578,6.121Z" transform="translate(-83.441 860.141)" fill="#f17908"/>
    <g id="Grupo_4" data-name="Grupo 4" transform="translate(-83.441 860.141)">
      <path id="Trazado_39" data-name="Trazado 39" d="M1025.076,1531.526a67.265,67.265,0,0,1-33.763-9.04v19.074h64.316v-17.327A67.3,67.3,0,0,1,1025.076,1531.526Z" fill="none"/>
      <rect id="Rectángulo_5" data-name="Rectángulo 5" width="17.684" height="43.316" transform="translate(1154.365 1421.139)" fill="#8199a6" stroke="#171715" stroke-miterlimit="10" stroke-width="2"/>
      <path id="Trazado_40" data-name="Trazado 40" d="M1154.365,1578.366H971.213v17.684H1172.05v-84.858h-17.684Z" fill="#8199a6" stroke="#171715" stroke-miterlimit="10" stroke-width="2"/>
      <path id="Trazado_41" data-name="Trazado 41" d="M1145.523,1374.4v46.737h35.368V1374.4Z" fill="#8199a6" stroke="#171715" stroke-miterlimit="10" stroke-width="2"/>
      <rect id="Rectángulo_6" data-name="Rectángulo 6" width="44.737" height="15.545" transform="translate(1180.892 1480.087)" fill="#8199a6" stroke="#171715" stroke-miterlimit="10" stroke-width="2"/>
      <path id="Trazado_42" data-name="Trazado 42" d="M1172.05,1464.455h-26.526v46.737h35.368v-46.737Z" fill="#8199a6" stroke="#171715" stroke-miterlimit="10" stroke-width="2"/>
      <rect id="Rectángulo_7" data-name="Rectángulo 7" width="44.631" height="21.72" transform="translate(1002.892 1596.05)" fill="#8199a6" stroke="#171715" stroke-miterlimit="10" stroke-width="2"/>
      <rect id="Rectángulo_8" data-name="Rectángulo 8" width="44.631" height="24.806" transform="translate(1002.892 1553.56)" fill="#8199a6" stroke="#171715" stroke-miterlimit="10" stroke-width="2"/>
      <path id="Trazado_43" data-name="Trazado 43" d="M1088.05,1553.56v-12H958.892v12H1088.05Z" fill="#8199a6" stroke="#171715" stroke-miterlimit="10" stroke-width="2"/>
      <path id="Trazado_44" data-name="Trazado 44" d="M991.313,1522.486a67.688,67.688,0,0,1-8.21-5.585v24.659h8.21Z" fill="#8199a6" stroke="#171715" stroke-miterlimit="10" stroke-width="2"/>
      <path id="Trazado_45" data-name="Trazado 45" d="M1055.629,1541.56h8.21V1519.3a67.5,67.5,0,0,1-8.21,4.936Z" fill="#8199a6" stroke="#171715" stroke-miterlimit="10" stroke-width="2"/>
      <path id="Trazado_46" data-name="Trazado 46" d="M1092.568,1459.737h-13.7v4.08l-.264.078a53.526,53.526,0,0,1-107.052,0v-4.158H943.866v12.337h14.088a67.619,67.619,0,0,0,134.244,0h14.352v-12.337Z" fill="#8199a6" stroke="#171715" stroke-miterlimit="10" stroke-width="2"/>
    </g>
    <path id="Trazado_47" data-name="Trazado 47" d="M1092.568,1459.737h-13.7v-4.079l-.264-.079a53.526,53.526,0,0,0-107.052,0v4.158H943.866V1447.4h14.088a67.619,67.619,0,0,1,134.244,0h14.352v12.337Z" transform="translate(-83.441 860.141)" fill="#8199a6" stroke="#171715" stroke-miterlimit="10" stroke-width="2"/>
    <path id="Trazado_48" data-name="Trazado 48" d="M1208.308,1447.409c-6.7,0-12.134,11.561-12.7,26.645l-4.032-6.224a1,1,0,0,0-1.678,1.088l6.1,9.424.008.009c.007.011.017.018.025.029a1,1,0,0,0,.232.227c.012.008.018.022.03.03s.023.009.034.015a.981.981,0,0,0,.169.078c.027.01.053.023.081.031a1,1,0,0,0,.247.035l.012,0h0l.013,0a.988.988,0,0,0,.246-.035c.028-.008.054-.021.081-.031a.954.954,0,0,0,.17-.078c.01-.006.023-.008.033-.015s.019-.022.031-.03a1.023,1.023,0,0,0,.232-.227c.007-.011.017-.018.025-.029l.007-.009,6.106-9.424a1,1,0,0,0-1.678-1.088l-4.525,6.984c.393-13.883,5.205-25.4,10.728-25.4,5.18,0,10.755,9.607,10.755,30.7,0,14.035-4.423,23.837-10.755,23.837-3.084,0-5.97-3.3-8.025-9.319a12.009,12.009,0,0,0-2.088.077c2.371,7.245,6,11.242,10.113,11.242,7.629,0,12.755-10.383,12.755-25.837C1221.063,1460.245,1216.056,1447.409,1208.308,1447.409Z" transform="translate(-83.441 860.141)" fill="#fff"/>
    <path id="Trazado_49" data-name="Trazado 49" d="M1031.107,1634.978l6.224-4.032a1,1,0,0,0-1.088-1.678l-9.424,6.106-.008.007a1.127,1.127,0,0,0-.136.133,1,1,0,0,0-.144.148l-.007.007a.9.9,0,0,0-.048.12,1,1,0,0,0-.091.232,4.555,4.555,0,0,0,0,.383.974.974,0,0,0,.091.231.894.894,0,0,0,.048.121l.008.009c.007.011.017.019.024.029a.968.968,0,0,0,.233.228c.011.008.017.021.03.029l9.424,6.106a1,1,0,0,0,1.088-1.678l-6.985-4.525c13.883.391,25.405,5.2,25.405,10.728,0,5.83-12.488,10.755-27.269,10.755s-27.268-4.925-27.268-10.755c0-3.6,4.927-7.081,12.857-9.085a1,1,0,0,0-.49-1.939c-9,2.273-14.367,6.4-14.367,11.024,0,7.153,12.856,12.755,29.268,12.755s29.269-5.6,29.269-12.755C1057.751,1640.979,1046.19,1635.547,1031.107,1634.978Z" transform="translate(-83.441 860.141)" fill="#fff"/>
    <path id="Trazado_50" data-name="Trazado 50" d="M1025.253,1678.492h-.5v-.81h.5Zm0-6.81h-.5v-6h.5Zm0-12h-.5v-6h.5Zm0-12h-.5v-6h.5Zm0-12h-.5v-6h.5Zm0-12h-.5v-6h.5Z" transform="translate(-83.441 860.141)" fill="#fff"/>
    <path id="Trazado_51" data-name="Trazado 51" d="M1112.049,1495.344a.733.733,0,0,0,.075-1.037l-3.777-4.362,17.672,5.126a.735.735,0,1,0,.409-1.412l-17.672-5.126,5.526-1.665a.735.735,0,1,0-.424-1.408l-7.907,2.382-.026.011c-.021.008-.041.019-.062.028a.75.75,0,0,0-.129.074c-.019.014-.036.028-.054.043a.714.714,0,0,0-.11.123c-.008.011-.019.017-.026.029l-.006.013a.706.706,0,0,0-.079.174l0,0h0v.005a.739.739,0,0,0-.027.186c0,.021.005.042.006.063a.779.779,0,0,0,.02.136.242.242,0,0,1,0,.026c0,.011.012.018.015.028a.7.7,0,0,0,.113.21c.006.008.009.017.015.024l.005.007,5.4,6.242A.734.734,0,0,0,1112.049,1495.344Z" transform="translate(-83.441 860.141)" fill="#347abf"/>
    <path id="Trazado_52" data-name="Trazado 52" d="M1096.06,1522.782a.736.736,0,0,0,.462-.932l-1.842-5.468,14.41,11.441a.735.735,0,1,0,.915-1.151l-14.411-11.442,5.745.554a.735.735,0,1,0,.14-1.464l-8.219-.792c-.01,0-.019,0-.028,0s-.046,0-.069,0a.652.652,0,0,0-.147.019c-.023.005-.044.012-.066.019a.739.739,0,0,0-.149.072.369.369,0,0,0-.034.017l-.011.01a.762.762,0,0,0-.14.131l0,0h0l0,0a.743.743,0,0,0-.095.163c-.008.019-.012.04-.019.06a.786.786,0,0,0-.032.133.257.257,0,0,0-.006.026.177.177,0,0,0,0,.032.736.736,0,0,0,.024.237c0,.009,0,.018.006.027v.009l2.636,7.825A.736.736,0,0,0,1096.06,1522.782Z" transform="translate(-83.441 860.141)" fill="#347abf"/>
    <path id="Trazado_53" data-name="Trazado 53" d="M1105.02,1416.428a.735.735,0,0,1,.075,1.037l-3.777,4.363,17.671-5.126a.735.735,0,1,1,.41,1.412l-17.672,5.126,5.526,1.665a.735.735,0,1,1-.425,1.407l-7.907-2.381c-.009,0-.016-.009-.025-.012a.5.5,0,0,1-.063-.028.738.738,0,0,1-.129-.073c-.019-.014-.036-.028-.054-.043a.71.71,0,0,1-.11-.123c-.008-.011-.019-.018-.026-.029l-.006-.013a.746.746,0,0,1-.079-.175l0,0h0v-.005a.747.747,0,0,1-.026-.187c0-.021,0-.042.005-.063a.666.666,0,0,1,.021-.135c0-.009,0-.018,0-.027s.012-.017.015-.027a.74.74,0,0,1,.113-.211c.006-.007.01-.016.016-.023l0-.007,5.406-6.243A.736.736,0,0,1,1105.02,1416.428Z" transform="translate(-83.441 860.141)" fill="#347abf"/>
    <path id="Trazado_54" data-name="Trazado 54" d="M1089.03,1388.991a.734.734,0,0,1,.462.931l-1.842,5.469,14.41-11.442a.736.736,0,0,1,.915,1.152l-14.411,11.442,5.745-.554a.735.735,0,0,1,.141,1.463l-8.22.793a.267.267,0,0,1-.028,0,.506.506,0,0,1-.068,0,.723.723,0,0,1-.148-.019l-.066-.019a.778.778,0,0,1-.149-.072c-.011-.007-.023-.009-.034-.017l-.011-.01a.691.691,0,0,1-.139-.132l0,0h0l0-.005a.7.7,0,0,1-.1-.162.607.607,0,0,1-.018-.06.689.689,0,0,1-.033-.134c0-.009-.005-.016-.006-.025s0-.021,0-.032a.708.708,0,0,1,.025-.237.254.254,0,0,1,.005-.028l0-.008,2.636-7.825A.735.735,0,0,1,1089.03,1388.991Z" transform="translate(-83.441 860.141)" fill="#347abf"/>
    <path id="Trazado_55" data-name="Trazado 55" d="M927.762,1495.51a.735.735,0,0,1-.075-1.037l3.777-4.362-17.671,5.125a.735.735,0,0,1-.41-1.412l17.672-5.126-5.526-1.665a.735.735,0,0,1,.425-1.407l7.907,2.382a.247.247,0,0,1,.025.011.481.481,0,0,1,.062.028.721.721,0,0,1,.13.074c.018.013.036.027.053.042a.716.716,0,0,1,.111.123c.007.011.018.018.026.029l.006.013a.791.791,0,0,1,.079.175l0,0h0v.006a.693.693,0,0,1,.027.186c0,.021,0,.042-.006.063a.7.7,0,0,1-.02.136c0,.008,0,.017,0,.026s-.011.017-.015.028a.746.746,0,0,1-.112.21c-.006.007-.01.016-.016.023l-.005.007-5.4,6.243A.736.736,0,0,1,927.762,1495.51Z" transform="translate(-83.441 860.141)" fill="#347abf"/>
    <path id="Trazado_56" data-name="Trazado 56" d="M943.752,1522.947a.734.734,0,0,1-.463-.931l1.842-5.469-14.41,11.442a.735.735,0,1,1-.914-1.152l14.41-11.442-5.744.555a.735.735,0,0,1-.141-1.464l8.22-.793a.279.279,0,0,1,.028,0c.023,0,.045,0,.068,0a.775.775,0,0,1,.147.019c.023.006.044.012.066.02a.685.685,0,0,1,.149.072c.011.006.024.009.035.016l.01.01a.731.731,0,0,1,.14.132l0,0h0l0,.005a.716.716,0,0,1,.1.162.557.557,0,0,1,.019.061.743.743,0,0,1,.033.133c0,.009.005.016.006.026s0,.02,0,.031a.738.738,0,0,1-.025.237c0,.009,0,.019-.005.028l0,.008-2.636,7.826A.735.735,0,0,1,943.752,1522.947Z" transform="translate(-83.441 860.141)" fill="#347abf"/>
    <path id="Trazado_57" data-name="Trazado 57" d="M934.792,1416.594a.734.734,0,0,0-.075,1.037l3.777,4.362-17.672-5.126a.736.736,0,0,0-.409,1.413l17.672,5.126-5.526,1.664a.735.735,0,0,0,.424,1.408l7.907-2.382.026-.011c.022-.008.041-.019.062-.028a.714.714,0,0,0,.129-.074.442.442,0,0,0,.054-.043.757.757,0,0,0,.111-.123c.007-.01.018-.017.025-.028l.006-.014a.725.725,0,0,0,.08-.174v0h0v-.005a.739.739,0,0,0,.027-.186c0-.021,0-.042-.006-.063a.694.694,0,0,0-.02-.136c0-.009,0-.017,0-.026a.245.245,0,0,0-.015-.028.7.7,0,0,0-.113-.21c-.005-.008-.009-.016-.015-.024l-.005-.007-5.405-6.242A.734.734,0,0,0,934.792,1416.594Z" transform="translate(-83.441 860.141)" fill="#347abf"/>
    <path id="Trazado_58" data-name="Trazado 58" d="M950.782,1389.157a.735.735,0,0,0-.463.931l1.842,5.468-14.41-11.441a.735.735,0,1,0-.914,1.151l14.41,11.442-5.745-.554a.735.735,0,0,0-.14,1.464l8.22.793c.009,0,.018,0,.027,0s.046,0,.069,0a.714.714,0,0,0,.147-.02.488.488,0,0,0,.066-.019.685.685,0,0,0,.149-.072c.011-.007.024-.009.035-.017l.01-.01a.724.724,0,0,0,.14-.131l0,0h0l0-.005a.752.752,0,0,0,.095-.162c.008-.02.012-.041.019-.061a.756.756,0,0,0,.032-.133.241.241,0,0,0,.007-.026c0-.011,0-.02,0-.031a.716.716,0,0,0-.024-.238c0-.009,0-.018-.006-.027v-.009l-2.636-7.825A.735.735,0,0,0,950.782,1389.157Z" transform="translate(-83.441 860.141)" fill="#347abf"/>
  </g>
</svg>
