<svg xmlns="http://www.w3.org/2000/svg" width="71.684" height="64.968" viewBox="0 0 71.684 64.968">
  <g id="Grupo_45" data-name="Grupo 45" transform="translate(-33.182 -27.579)">
    <path id="Trazado_2889" data-name="Trazado 2889" d="M47.606,27.579a1.645,1.645,0,0,0-1.094.788L33.441,50.032a2.036,2.036,0,0,0,.18,2.258l34.2,39.719a1.614,1.614,0,0,0,2.623-.318l33.98-39.4a2.016,2.016,0,0,0,.17-2.258L91.536,28.367a1.614,1.614,0,0,0-1.327-.788h-42.6Zm2.517,3.611H65.764l-10.853,16Zm22.162,0H87.915l-4.778,16Zm-3.26,1.188,11.4,16.866H57.609Zm-21.673,1.07,4.736,15.8H37.826Zm43.346,0,9.525,15.8H85.962ZM38.591,52.855H53.255l10.98,29.734Zm18.18,0H81.247L69.024,85.976Zm28.013,0H99.458L73.814,82.589Z" transform="translate(0 0)" fill="#fff"/>
  </g>
</svg>
